%YAML 1.1
%TAG !u! tag:unity3d.com,2011:
--- !u!74 &7400000
AnimationClip:
  m_ObjectHideFlags: 0
  m_PrefabParentObject: {fileID: 0}
  m_PrefabInternal: {fileID: 0}
  m_Name: SodaPunch-birth
  serializedVersion: 6
  m_Legacy: 0
  m_Compressed: 0
  m_UseHighQualityCurve: 1
  m_RotationCurves: []
  m_CompressedRotationCurves: []
  m_EulerCurves: []
  m_PositionCurves: []
  m_ScaleCurves: []
  m_FloatCurves:
  - curve:
      serializedVersion: 2
      m_Curve:
      - serializedVersion: 2
        time: 0
        value: 1
        inSlope: Infinity
        outSlope: Infinity
        tangentMode: 103
      - serializedVersion: 2
        time: 0.5
        value: 0
        inSlope: Infinity
        outSlope: Infinity
        tangentMode: 103
      m_PreInfinity: 2
      m_PostInfinity: 2
      m_RotationOrder: 4
    attribute: m_IsActive
    path: Sprites/body
    classID: 1
    script: {fileID: 0}
  m_PPtrCurves:
  - curve:
    - time: 0
      value: {fileID: 21300000, guid: bc1146696ff42dd4fb86d9eb2e5ea5b6, type: 3}
    - time: 0.083333336
      value: {fileID: 21300002, guid: bc1146696ff42dd4fb86d9eb2e5ea5b6, type: 3}
    - time: 0.16666667
      value: {fileID: 21300004, guid: bc1146696ff42dd4fb86d9eb2e5ea5b6, type: 3}
    - time: 0.25
      value: {fileID: 21300006, guid: bc1146696ff42dd4fb86d9eb2e5ea5b6, type: 3}
    - time: 0.33333334
      value: {fileID: 21300008, guid: bc1146696ff42dd4fb86d9eb2e5ea5b6, type: 3}
    - time: 0.41666666
      value: {fileID: 21300010, guid: bc1146696ff42dd4fb86d9eb2e5ea5b6, type: 3}
    attribute: m_Sprite
    path: Sprites/body
    classID: 212
    script: {fileID: 0}
  m_SampleRate: 60
  m_WrapMode: 0
  m_Bounds:
    m_Center: {x: 0, y: 0, z: 0}
    m_Extent: {x: 0, y: 0, z: 0}
  m_ClipBindingConstant:
    genericBindings:
    - serializedVersion: 2
      path: 154243334
      attribute: 2086281974
      script: {fileID: 0}
      typeID: 1
      customType: 0
      isPPtrCurve: 0
    - serializedVersion: 2
      path: 154243334
      attribute: 0
      script: {fileID: 0}
      typeID: 212
      customType: 23
      isPPtrCurve: 1
    pptrCurveMapping:
    - {fileID: 21300000, guid: bc1146696ff42dd4fb86d9eb2e5ea5b6, type: 3}
    - {fileID: 21300002, guid: bc1146696ff42dd4fb86d9eb2e5ea5b6, type: 3}
    - {fileID: 21300004, guid: bc1146696ff42dd4fb86d9eb2e5ea5b6, type: 3}
    - {fileID: 21300006, guid: bc1146696ff42dd4fb86d9eb2e5ea5b6, type: 3}
    - {fileID: 21300008, guid: bc1146696ff42dd4fb86d9eb2e5ea5b6, type: 3}
    - {fileID: 21300010, guid: bc1146696ff42dd4fb86d9eb2e5ea5b6, type: 3}
  m_AnimationClipSettings:
    serializedVersion: 2
    m_AdditiveReferencePoseClip: {fileID: 0}
    m_AdditiveReferencePoseTime: 0
    m_StartTime: 0
    m_StopTime: 0.5
    m_OrientationOffsetY: 0
    m_Level: 0
    m_CycleOffset: 0
    m_HasAdditiveReferencePose: 0
    m_LoopTime: 0
    m_LoopBlend: 0
    m_LoopBlendOrientation: 0
    m_LoopBlendPositionY: 0
    m_LoopBlendPositionXZ: 0
    m_KeepOriginalOrientation: 0
    m_KeepOriginalPositionY: 1
    m_KeepOriginalPositionXZ: 0
    m_HeightFromFeet: 0
    m_Mirror: 0
  m_EditorCurves:
  - curve:
      serializedVersion: 2
      m_Curve:
      - serializedVersion: 2
        time: 0
        value: 1
        inSlope: Infinity
        outSlope: Infinity
        tangentMode: 103
      - serializedVersion: 2
        time: 0.5
        value: 0
        inSlope: Infinity
        outSlope: Infinity
        tangentMode: 103
      m_PreInfinity: 2
      m_PostInfinity: 2
      m_RotationOrder: 4
    attribute: m_IsActive
    path: Sprites/body
    classID: 1
    script: {fileID: 0}
  m_EulerEditorCurves: []
  m_HasGenericRootTransform: 0
  m_HasMotionFloatCurves: 0
  m_GenerateMotionCurves: 0
  m_Events: []
